[gd_scene load_steps=4 format=2]

[ext_resource path="res://EndGame/EndGame.gd" type="Script" id=1]

[sub_resource type="DynamicFontData" id=1]
font_path = "res://Fonts/Rachana-Regular.ttf"

[sub_resource type="DynamicFont" id=2]
size = 32
font_data = SubResource( 1 )

[node name="EndGame" type="Control"]
anchor_right = 1.0
anchor_bottom = 1.0
script = ExtResource( 1 )
__meta__ = {
"_edit_use_anchors_": false
}

[node name="Title" type="Label" parent="."]
anchor_top = 0.5
anchor_right = 1.0
anchor_bottom = 0.5
margin_left = 1.12244
margin_top = -156.287
margin_right = 1.12244
margin_bottom = -142.287
custom_fonts/font = SubResource( 2 )
text = "HELLO"
align = 1
__meta__ = {
"_edit_use_anchors_": false
}
